<define-tag pagetitle>DLA-1113-1 ruby1.8</define-tag>
<define-tag report_date>2017-9-26</define-tag>
<define-tag secrefs>CVE-2017-0898 CVE-2017-10784 Bug#875931 Bug#875936</define-tag>
<define-tag packages>ruby1.8</define-tag>
<define-tag isvulnerable>yes</define-tag>
<define-tag fixed>yes</define-tag>
<define-tag fixed-section>no</define-tag>

#use wml::debian::security

