<define-tag pagetitle>DLA-1146-1 mosquitto</define-tag>
<define-tag report_date>2017-10-26</define-tag>
<define-tag secrefs>CVE-2017-9868 Bug#865959</define-tag>
<define-tag packages>mosquitto</define-tag>
<define-tag isvulnerable>yes</define-tag>
<define-tag fixed>yes</define-tag>
<define-tag fixed-section>no</define-tag>

#use wml::debian::security

