<define-tag pagetitle>DLA-2131-1 rrdtool</define-tag>
<define-tag report_date>2020-03-02</define-tag>
<define-tag secrefs>CVE-2014-6262</define-tag>
<define-tag packages>rrdtool</define-tag>
<define-tag isvulnerable>yes</define-tag>
<define-tag fixed>yes</define-tag>
<define-tag fixed-section>no</define-tag>

#use wml::debian::security

