<define-tag pagetitle>DLA-1423-1 linux-4.9</define-tag>
<define-tag report_date>2018-7-18</define-tag>
<define-tag secrefs>CVE-2017-5753 CVE-2017-18255 CVE-2018-1118 CVE-2018-1120 CVE-2018-1130 CVE-2018-3639 CVE-2018-5814 CVE-2018-10021 CVE-2018-10087 CVE-2018-10124 CVE-2018-10853 CVE-2018-1087 CVE-2018-10877 CVE-2018-10878 CVE-2018-10879 CVE-2018-1088 CVE-2018-10881 CVE-2018-10882 CVE-2018-10883 CVE-2018-1094 CVE-2018-11506 CVE-2018-12233 CVE-2018-1000204 Bug#860900 Bug#872907 Bug#892057 Bug#896775 Bug#897590 Bug#898137</define-tag>
<define-tag packages>linux-4.9</define-tag>
<define-tag isvulnerable>yes</define-tag>
<define-tag fixed>yes</define-tag>
<define-tag fixed-section>no</define-tag>

#use wml::debian::security

