<define-tag pagetitle>DLA-1682-1 uriparser</define-tag>
<define-tag report_date>2019-2-18</define-tag>
<define-tag secrefs>CVE-2018-20721</define-tag>
<define-tag packages>uriparser</define-tag>
<define-tag isvulnerable>yes</define-tag>
<define-tag fixed>yes</define-tag>
<define-tag fixed-section>no</define-tag>

#use wml::debian::security

