<define-tag pagetitle>DLA-1921-1 dnsmasq</define-tag>
<define-tag report_date>2019-09-13</define-tag>
<define-tag secrefs>CVE-2019-14513</define-tag>
<define-tag packages>dnsmasq</define-tag>
<define-tag isvulnerable>yes</define-tag>
<define-tag fixed>yes</define-tag>
<define-tag fixed-section>no</define-tag>

#use wml::debian::security

