<define-tag pagetitle>DLA-2012-1 libvpx</define-tag>
<define-tag report_date>2019-11-28</define-tag>
<define-tag secrefs>CVE-2019-9232 CVE-2019-9433</define-tag>
<define-tag packages>libvpx</define-tag>
<define-tag isvulnerable>yes</define-tag>
<define-tag fixed>yes</define-tag>
<define-tag fixed-section>no</define-tag>

#use wml::debian::security

