<define-tag pagetitle>DLA-574-1 graphicsmagick</define-tag>
<define-tag report_date>2016-7-11</define-tag>
<define-tag secrefs>2016-5240 2016-5241</define-tag>
<define-tag packages>graphicsmagick</define-tag>
<define-tag isvulnerable>yes</define-tag>
<define-tag fixed>yes</define-tag>
<define-tag fixed-section>no</define-tag>

#use wml::debian::security

